SARS Genomic Surveillance
…
ℹ Use `spec()` to retrieve the full column specification for this data.
ℹ Specify the column types or set `show_col_types = FALSE` to quiet this message.

When we read the table in, we get a message informing us of the column types found. In this case we have character columns containing text (indicated by chr) and numeric columns (indicated by dbl, which refers to the double-precission floating point format that computers use to store numbers).

To see the content of the table you can type the name of the object:

missing_intervals

# A tibble: 132 × 6
   seqID patternName pattern strand start   end
   <chr> <chr>       <chr>   <chr>  <dbl> <dbl>
 1 CH01  N+          N+      +          1    54
 2 CH01  N+          N+      +       1193  1264
 3 CH01  N+          N+      +       4143  4322
 4 CH01  N+          N+      +       6248  6294
 5 CH01  N+          N+      +       7561  7561
 6 CH01  N+          N+      +       9243  9311
 7 CH01  N+          N+      +      10367 10367
 8 CH01  N+          N+      +      11361 11370
 9 CH01  N+          N+      +      13599 13613
10 CH01  N+          N+      +      16699 16758
# ℹ 122 more rows
…
There’s a set of basic functions that can be thought of as “data manipulation verbs”. They are:

mutate() → add a new column of modify an existing one.

select() → select columns from the table.

filter() → subset the rows from the table that fullfill a certain logical condition.

Here are some examples of each:

# create a new column with the missing interval lengths
mutate(missing_intervals, 
       length = (end - start) + 1)

# A tibble: 132 × 7
   seqID patternName pattern strand start   end length
   <chr> <chr>       <chr>   <chr>  <dbl> <dbl>  <dbl>
 1 CH01  N+          N+      +          1    54     54
 2 CH01  N+          N+      +       1193  1264     72
 3 CH01  N+          N+      +       4143  4322    180
 4 CH01  N+          N+      +       6248  6294     47
 5 CH01  N+          N+      +       7561  7561      1
 6 CH01  N+          N+      +       9243  9311     69
 7 CH01  N+          N+      +      10367 10367      1
 8 CH01  N+          N+      +      11361 11370     10
 9 CH01  N+          N+      +      13599 13613     15
10 CH01  N+          N+      +      16699 16758     60
# ℹ 122 more rows

# select only a few columns of the table
select(missing_intervals,
       seqID, start, end)

# A tibble: 132 × 3
   seqID start   end
   <chr> <dbl> <dbl>
 1 CH01      1    54
 2 CH01   1193  1264
 3 CH01   4143  4322
 4 CH01   6248  6294
 5 CH01   7561  7561
 6 CH01   9243  9311
 7 CH01  10367 10367
 8 CH01  11361 11370
 9 CH01  13599 13613
10 CH01  16699 16758
# ℹ 122 more rows
…
Pipes

We can chain multiple commands together using pipes (similarly to pipes in Unix). In R the pipe is represented by |> (or %>%). The way the pipe works is that the output of one function is sent as the input to the next function.

Taking the examples from the previous section, we could chain all those commands like this:

missing_intervals |> 
  mutate(length = (end - start) + 1) |> 
  select(seqID, start, end, length)

# A tibble: 132 × 4
   seqID start   end length
   <chr> <dbl> <dbl>  <dbl>
 1 CH01      1    54     54
 2 CH01   1193  1264     72
 3 CH01   4143  4322    180
 4 CH01   6248  6294     47
 5 CH01   7561  7561      1
 6 CH01   9243  9311     69
 7 CH01  10367 10367      1
 8 CH01  11361 11370     10
 9 CH01  13599 13613     15
10 CH01  16699 16758     60
# ℹ 122 more rows
…
